{
    "identityPoolName": "otptestidentitypool",
    "allowUnauthenticatedIdentities": false,
    "resourceNameTruncated": "otptes95008bd7",
    "userPoolName": "otptestuserpool",
    "aliasAttributes": [
        "email",
        "phone_numer"
    ],
    "autoVerifiedAttributes": [
        "phone_number"
    ],
    "mfaConfiguration": "OFF",
    "mfaTypes": [
        "SMS Text Message"
    ],
    "smsAuthenticationMessage": "Your authentication code is {####}",
    "smsVerificationMessage": "Your verification code is {####}",
    "emailVerificationSubject": "Your verification code",
    "emailVerificationMessage": "Your verification code is {####}",
    "defaultPasswordPolicy": false,
    "passwordPolicyMinLength": 8,
    "passwordPolicyCharacters": [],
    "requiredAttributes": [
        "email"
    ],
    "userpoolClientGenerateSecret": false,
    "userpoolClientRefreshTokenValidity": 30,
    "userpoolClientWriteAttributes": [
        "email"
    ],
    "userpoolClientReadAttributes": [
        "email"
    ],
    "userpoolClientLambdaRole": "otptes95008bd7_userpoolclient_lambda_role",
    "userpoolClientSetAttributes": false,
    "aliasAttributes": [
        "email",
        "phone_number"
    ],
    "sharedId": "95008bd7",
    "resourceName": "otptest",
    "authSelections": "identityPoolAndUserPool",
    "authRoleArn": {
        "Fn::GetAtt": [
            "AuthRole",
            "Arn"
        ]
    },
    "unauthRoleArn": {
        "Fn::GetAtt": [
            "UnauthRole",
            "Arn"
        ]
    },
    "useDefault": "manual",
    "thirdPartyAuth": false,
    "userPoolGroups": false,
    "adminQueries": false,
    "triggers": "{\n  \"CreateAuthChallenge\": [\n    \"boilerplate-create-challenge\"\n  ],\n  \"DefineAuthChallenge\": [\n    \"boilerplate-define-challenge\"\n  ],\n  \"PreAuthentication\": [\n    \"custom\"\n  ],\n  \"PreSignup\": [\n    \"custom\"\n  ],\n  \"VerifyAuthChallengeResponse\": [\n    \"boilerplate-verify\"\n  ]\n}",
    "hostedUI": false,
    "userPoolGroupList": [],
    "serviceName": "Cognito",
    "usernameCaseSensitive": false,
    "parentStack": {
        "Ref": "AWS::StackId"
    },
    "permissions": [],
    "dependsOn": [
        {
            "category": "function",
            "resourceName": "otptestCreateAuthChallenge",
            "triggerProvider": "Cognito",
            "attributes": [
                "Arn",
                "Name"
            ]
        },
        {
            "category": "function",
            "resourceName": "otptestDefineAuthChallenge",
            "triggerProvider": "Cognito",
            "attributes": [
                "Arn",
                "Name"
            ]
        },
        {
            "category": "function",
            "resourceName": "otptestPreSignup",
            "triggerProvider": "Cognito",
            "attributes": [
                "Arn",
                "Name"
            ]
        },
        {
            "category": "function",
            "resourceName": "otptestVerifyAuthChallengeResponse",
            "triggerProvider": "Cognito",
            "attributes": [
                "Arn",
                "Name"
            ]
        },
        {
            "category": "function",
            "resourceName": "otptestPreAuthentication",
            "triggerProvider": "Cognito",
            "attributes": [
                "Arn",
                "Name"
            ]
        }
    ],
    "authProviders": []
}